xof 0303txt 0032
template Frame {
 <3d82ab46-62da-11cf-ab39-0020af71e433>
 [...]
}

template Matrix4x4 {
 <f6f23f45-7686-11cf-8f52-0040333594a3>
 array FLOAT matrix[16];
}

template FrameTransformMatrix {
 <f6f23f41-7686-11cf-8f52-0040333594a3>
 Matrix4x4 frameMatrix;
}

template Vector {
 <3d82ab5e-62da-11cf-ab39-0020af71e433>
 FLOAT x;
 FLOAT y;
 FLOAT z;
}

template MeshFace {
 <3d82ab5f-62da-11cf-ab39-0020af71e433>
 DWORD nFaceVertexIndices;
 array DWORD faceVertexIndices[nFaceVertexIndices];
}

template Mesh {
 <3d82ab44-62da-11cf-ab39-0020af71e433>
 DWORD nVertices;
 array Vector vertices[nVertices];
 DWORD nFaces;
 array MeshFace faces[nFaces];
 [...]
}

template MeshNormals {
 <f6f23f43-7686-11cf-8f52-0040333594a3>
 DWORD nNormals;
 array Vector normals[nNormals];
 DWORD nFaceNormals;
 array MeshFace faceNormals[nFaceNormals];
}

template Coords2d {
 <f6f23f44-7686-11cf-8f52-0040333594a3>
 FLOAT u;
 FLOAT v;
}

template MeshTextureCoords {
 <f6f23f40-7686-11cf-8f52-0040333594a3>
 DWORD nTextureCoords;
 array Coords2d textureCoords[nTextureCoords];
}

template ColorRGBA {
 <35ff44e0-6c7c-11cf-8f52-0040333594a3>
 FLOAT red;
 FLOAT green;
 FLOAT blue;
 FLOAT alpha;
}

template ColorRGB {
 <d3e16e81-7835-11cf-8f52-0040333594a3>
 FLOAT red;
 FLOAT green;
 FLOAT blue;
}

template Material {
 <3d82ab4d-62da-11cf-ab39-0020af71e433>
 ColorRGBA faceColor;
 FLOAT power;
 ColorRGB specularColor;
 ColorRGB emissiveColor;
 [...]
}

template MeshMaterialList {
 <f6f23f42-7686-11cf-8f52-0040333594a3>
 DWORD nMaterials;
 DWORD nFaceIndexes;
 array DWORD faceIndexes[nFaceIndexes];
 [Material <3d82ab4d-62da-11cf-ab39-0020af71e433>]
}

template TextureFilename {
 <a42790e1-7810-11cf-8f52-0040333594a3>
 STRING filename;
}

template XSkinMeshHeader {
 <3cf169ce-ff7c-44ab-93c0-f78f62d172e2>
 WORD nMaxSkinWeightsPerVertex;
 WORD nMaxSkinWeightsPerFace;
 WORD nBones;
}

template SkinWeights {
 <6f0d123b-bad2-4167-a0d0-80224f25fabb>
 STRING transformNodeName;
 DWORD nWeights;
 array DWORD vertexIndices[nWeights];
 array FLOAT weights[nWeights];
 Matrix4x4 matrixOffset;
}


Frame Scene_Root {
 

 Frame grid {
  

  FrameTransformMatrix {
   1.000000,0.000000,0.000000,0.000000,0.000000,1.000000,0.000000,0.000000,0.000000,0.000000,1.000000,0.000000,0.000000,0.000000,0.000000,1.000000;;
  }

  Mesh grid_obj {
   16;
   -2.000000;0.000000;-2.000000;,
   -2.000000;0.000000;0.000000;,
   0.000000;0.000000;0.000000;,
   0.000000;0.000000;-2.000000;,
   -2.000000;0.000000;0.000000;,
   -2.000000;0.000000;2.000000;,
   0.000000;0.000000;2.000000;,
   0.000000;0.000000;0.000000;,
   0.000000;0.000000;-2.000000;,
   0.000000;0.000000;0.000000;,
   2.000000;0.000000;0.000000;,
   2.000000;0.000000;-2.000000;,
   0.000000;0.000000;0.000000;,
   0.000000;0.000000;2.000000;,
   2.000000;0.000000;2.000000;,
   2.000000;0.000000;0.000000;;
   4;
   4;0,1,2,3;,
   4;4,5,6,7;,
   4;8,9,10,11;,
   4;12,13,14,15;;

   MeshNormals {
    16;
    0.000000;1.000000;0.000000;,
    0.000000;1.000000;0.000000;,
    0.000000;1.000000;0.000000;,
    0.000000;1.000000;0.000000;,
    0.000000;1.000000;0.000000;,
    0.000000;1.000000;0.000000;,
    0.000000;1.000000;0.000000;,
    0.000000;1.000000;0.000000;,
    0.000000;1.000000;0.000000;,
    0.000000;1.000000;0.000000;,
    0.000000;1.000000;0.000000;,
    0.000000;1.000000;0.000000;,
    0.000000;1.000000;0.000000;,
    0.000000;1.000000;0.000000;,
    0.000000;1.000000;0.000000;,
    0.000000;1.000000;0.000000;;
    4;
    4;0,1,2,3;,
    4;4,5,6,7;,
    4;8,9,10,11;,
    4;12,13,14,15;;
   }

   MeshTextureCoords {
    16;
    0.000000;-1.000000;,
    0.000000;-0.500000;,
    -0.500000;-0.500000;,
    -0.500000;-1.000000;,
    0.000000;-0.500000;,
    0.000000;0.000000;,
    -0.500000;0.000000;,
    -0.500000;-0.500000;,
    -0.500000;-1.000000;,
    -0.500000;-0.500000;,
    -1.000000;-0.500000;,
    -1.000000;-1.000000;,
    -0.500000;-0.500000;,
    -0.500000;0.000000;,
    -1.000000;0.000000;,
    -1.000000;-0.500000;;
   }

   MeshMaterialList {
    1;
    4;
    0,
    0,
    0,
    0;

    Material DefaultLib_Scene_Material {
     0.700000;0.700000;0.700000;1.000000;;
     50.000000;
     1.000000;1.000000;1.000000;;
     0.000000;0.000000;0.000000;;

     TextureFilename {
      "floor.png";
     }
    }
   }

   XSkinMeshHeader {
    1;
    3;
    1;
   }

   SkinWeights {
    "null";
    16;
    0,
    1,
    4,
    5,
    3,
    8,
    2,
    7,
    9,
    12,
    6,
    13,
    11,
    10,
    15,
    14;
    1.000000,
    1.000000,
    1.000000,
    1.000000,
    1.000000,
    1.000000,
    1.000000,
    1.000000,
    1.000000,
    1.000000,
    1.000000,
    1.000000,
    1.000000,
    1.000000,
    1.000000,
    1.000000;
    1.000000,0.000000,0.000000,0.000000,0.000000,1.000000,0.000000,0.000000,0.000000,0.000000,1.000000,0.000000,0.000000,0.000000,0.000000,1.000000;;
   }
  }
 }

 Frame null {
  

  FrameTransformMatrix {
   1.000000,0.000000,0.000000,0.000000,0.000000,1.000000,0.000000,0.000000,0.000000,0.000000,1.000000,0.000000,0.000000,0.000000,0.000000,1.000000;;
  }
 }
}