xof 0303txt 0032
template Frame {
 <3d82ab46-62da-11cf-ab39-0020af71e433>
 [...]
}

template Matrix4x4 {
 <f6f23f45-7686-11cf-8f52-0040333594a3>
 array FLOAT matrix[16];
}

template FrameTransformMatrix {
 <f6f23f41-7686-11cf-8f52-0040333594a3>
 Matrix4x4 frameMatrix;
}

template Vector {
 <3d82ab5e-62da-11cf-ab39-0020af71e433>
 FLOAT x;
 FLOAT y;
 FLOAT z;
}

template MeshFace {
 <3d82ab5f-62da-11cf-ab39-0020af71e433>
 DWORD nFaceVertexIndices;
 array DWORD faceVertexIndices[nFaceVertexIndices];
}

template Mesh {
 <3d82ab44-62da-11cf-ab39-0020af71e433>
 DWORD nVertices;
 array Vector vertices[nVertices];
 DWORD nFaces;
 array MeshFace faces[nFaces];
 [...]
}

template MeshNormals {
 <f6f23f43-7686-11cf-8f52-0040333594a3>
 DWORD nNormals;
 array Vector normals[nNormals];
 DWORD nFaceNormals;
 array MeshFace faceNormals[nFaceNormals];
}

template ColorRGBA {
 <35ff44e0-6c7c-11cf-8f52-0040333594a3>
 FLOAT red;
 FLOAT green;
 FLOAT blue;
 FLOAT alpha;
}

template ColorRGB {
 <d3e16e81-7835-11cf-8f52-0040333594a3>
 FLOAT red;
 FLOAT green;
 FLOAT blue;
}

template Material {
 <3d82ab4d-62da-11cf-ab39-0020af71e433>
 ColorRGBA faceColor;
 FLOAT power;
 ColorRGB specularColor;
 ColorRGB emissiveColor;
 [...]
}

template MeshMaterialList {
 <f6f23f42-7686-11cf-8f52-0040333594a3>
 DWORD nMaterials;
 DWORD nFaceIndexes;
 array DWORD faceIndexes[nFaceIndexes];
 [Material <3d82ab4d-62da-11cf-ab39-0020af71e433>]
}


Frame Scene_Root {
 

 Frame null {
  

  FrameTransformMatrix {
   1.000000,0.000000,0.000000,0.000000,0.000000,1.000000,0.000000,0.000000,0.000000,0.000000,1.000000,0.000000,0.000000,0.000000,0.000000,1.000000;;
  }

  Frame grid {
   

   FrameTransformMatrix {
    5.000000,0.000000,0.000000,0.000000,0.000000,5.000000,0.000000,0.000000,0.000000,0.000000,5.000000,0.000000,0.000000,0.000000,0.000000,1.000000;;
   }

   Mesh grid_obj {
    81;
    -4.000000;0.000000;-4.000000;,
    -4.000000;0.000000;-3.000000;,
    -4.000000;0.000000;-2.000000;,
    -4.000000;0.000000;-1.000000;,
    -4.000000;0.000000;0.000000;,
    -4.000000;0.000000;1.000000;,
    -4.000000;0.000000;2.000000;,
    -4.000000;0.000000;3.000000;,
    -4.000000;0.000000;4.000000;,
    -3.000000;0.000000;-4.000000;,
    -3.000000;0.000000;-3.000000;,
    -3.000000;0.000000;-2.000000;,
    -3.000000;0.000000;-1.000000;,
    -3.000000;0.000000;0.000000;,
    -3.000000;0.000000;1.000000;,
    -3.000000;0.000000;2.000000;,
    -3.000000;0.000000;3.000000;,
    -3.000000;0.000000;4.000000;,
    -2.000000;0.000000;-4.000000;,
    -2.000000;0.000000;-3.000000;,
    -2.000000;0.000000;-2.000000;,
    -2.000000;0.000000;-1.000000;,
    -2.000000;0.000000;0.000000;,
    -2.000000;0.000000;1.000000;,
    -2.000000;0.000000;2.000000;,
    -2.000000;0.000000;3.000000;,
    -2.000000;0.000000;4.000000;,
    -1.000000;0.000000;-4.000000;,
    -1.000000;0.000000;-3.000000;,
    -1.000000;0.000000;-2.000000;,
    -1.000000;0.000000;-1.000000;,
    -1.000000;0.000000;0.000000;,
    -1.000000;0.000000;1.000000;,
    -1.000000;0.000000;2.000000;,
    -1.000000;0.000000;3.000000;,
    -1.000000;0.000000;4.000000;,
    0.000000;0.000000;-4.000000;,
    0.000000;0.000000;-3.000000;,
    0.000000;0.000000;-2.000000;,
    0.000000;0.000000;-1.000000;,
    0.000000;0.000000;0.000000;,
    0.000000;0.000000;1.000000;,
    0.000000;0.000000;2.000000;,
    0.000000;0.000000;3.000000;,
    0.000000;0.000000;4.000000;,
    1.000000;0.000000;-4.000000;,
    1.000000;0.000000;-3.000000;,
    1.000000;0.000000;-2.000000;,
    1.000000;0.000000;-1.000000;,
    1.000000;0.000000;0.000000;,
    1.000000;0.000000;1.000000;,
    1.000000;0.000000;2.000000;,
    1.000000;0.000000;3.000000;,
    1.000000;0.000000;4.000000;,
    2.000000;0.000000;-4.000000;,
    2.000000;0.000000;-3.000000;,
    2.000000;0.000000;-2.000000;,
    2.000000;0.000000;-1.000000;,
    2.000000;0.000000;0.000000;,
    2.000000;0.000000;1.000000;,
    2.000000;0.000000;2.000000;,
    2.000000;0.000000;3.000000;,
    2.000000;0.000000;4.000000;,
    3.000000;0.000000;-4.000000;,
    3.000000;0.000000;-3.000000;,
    3.000000;0.000000;-2.000000;,
    3.000000;0.000000;-1.000000;,
    3.000000;0.000000;0.000000;,
    3.000000;0.000000;1.000000;,
    3.000000;0.000000;2.000000;,
    3.000000;0.000000;3.000000;,
    3.000000;0.000000;4.000000;,
    4.000000;0.000000;-4.000000;,
    4.000000;0.000000;-3.000000;,
    4.000000;0.000000;-2.000000;,
    4.000000;0.000000;-1.000000;,
    4.000000;0.000000;0.000000;,
    4.000000;0.000000;1.000000;,
    4.000000;0.000000;2.000000;,
    4.000000;0.000000;3.000000;,
    4.000000;0.000000;4.000000;;
    64;
    4;0,1,10,9;,
    4;1,2,11,10;,
    4;2,3,12,11;,
    4;3,4,13,12;,
    4;4,5,14,13;,
    4;5,6,15,14;,
    4;6,7,16,15;,
    4;7,8,17,16;,
    4;9,10,19,18;,
    4;10,11,20,19;,
    4;11,12,21,20;,
    4;12,13,22,21;,
    4;13,14,23,22;,
    4;14,15,24,23;,
    4;15,16,25,24;,
    4;16,17,26,25;,
    4;18,19,28,27;,
    4;19,20,29,28;,
    4;20,21,30,29;,
    4;21,22,31,30;,
    4;22,23,32,31;,
    4;23,24,33,32;,
    4;24,25,34,33;,
    4;25,26,35,34;,
    4;27,28,37,36;,
    4;28,29,38,37;,
    4;29,30,39,38;,
    4;30,31,40,39;,
    4;31,32,41,40;,
    4;32,33,42,41;,
    4;33,34,43,42;,
    4;34,35,44,43;,
    4;36,37,46,45;,
    4;37,38,47,46;,
    4;38,39,48,47;,
    4;39,40,49,48;,
    4;40,41,50,49;,
    4;41,42,51,50;,
    4;42,43,52,51;,
    4;43,44,53,52;,
    4;45,46,55,54;,
    4;46,47,56,55;,
    4;47,48,57,56;,
    4;48,49,58,57;,
    4;49,50,59,58;,
    4;50,51,60,59;,
    4;51,52,61,60;,
    4;52,53,62,61;,
    4;54,55,64,63;,
    4;55,56,65,64;,
    4;56,57,66,65;,
    4;57,58,67,66;,
    4;58,59,68,67;,
    4;59,60,69,68;,
    4;60,61,70,69;,
    4;61,62,71,70;,
    4;63,64,73,72;,
    4;64,65,74,73;,
    4;65,66,75,74;,
    4;66,67,76,75;,
    4;67,68,77,76;,
    4;68,69,78,77;,
    4;69,70,79,78;,
    4;70,71,80,79;;

    MeshNormals {
     256;
     0.000000;1.000000;0.000000;,
     0.000000;1.000000;0.000000;,
     0.000000;1.000000;0.000000;,
     0.000000;1.000000;0.000000;,
     0.000000;1.000000;0.000000;,
     0.000000;1.000000;0.000000;,
     0.000000;1.000000;0.000000;,
     0.000000;1.000000;0.000000;,
     0.000000;1.000000;0.000000;,
     0.000000;1.000000;0.000000;,
     0.000000;1.000000;0.000000;,
     0.000000;1.000000;0.000000;,
     0.000000;1.000000;0.000000;,
     0.000000;1.000000;0.000000;,
     0.000000;1.000000;0.000000;,
     0.000000;1.000000;0.000000;,
     0.000000;1.000000;0.000000;,
     0.000000;1.000000;0.000000;,
     0.000000;1.000000;0.000000;,
     0.000000;1.000000;0.000000;,
     0.000000;1.000000;0.000000;,
     0.000000;1.000000;0.000000;,
     0.000000;1.000000;0.000000;,
     0.000000;1.000000;0.000000;,
     0.000000;1.000000;0.000000;,
     0.000000;1.000000;0.000000;,
     0.000000;1.000000;0.000000;,
     0.000000;1.000000;0.000000;,
     0.000000;1.000000;0.000000;,
     0.000000;1.000000;0.000000;,
     0.000000;1.000000;0.000000;,
     0.000000;1.000000;0.000000;,
     0.000000;1.000000;0.000000;,
     0.000000;1.000000;0.000000;,
     0.000000;1.000000;0.000000;,
     0.000000;1.000000;0.000000;,
     0.000000;1.000000;0.000000;,
     0.000000;1.000000;0.000000;,
     0.000000;1.000000;0.000000;,
     0.000000;1.000000;0.000000;,
     0.000000;1.000000;0.000000;,
     0.000000;1.000000;0.000000;,
     0.000000;1.000000;0.000000;,
     0.000000;1.000000;0.000000;,
     0.000000;1.000000;0.000000;,
     0.000000;1.000000;0.000000;,
     0.000000;1.000000;0.000000;,
     0.000000;1.000000;0.000000;,
     0.000000;1.000000;0.000000;,
     0.000000;1.000000;0.000000;,
     0.000000;1.000000;0.000000;,
     0.000000;1.000000;0.000000;,
     0.000000;1.000000;0.000000;,
     0.000000;1.000000;0.000000;,
     0.000000;1.000000;0.000000;,
     0.000000;1.000000;0.000000;,
     0.000000;1.000000;0.000000;,
     0.000000;1.000000;0.000000;,
     0.000000;1.000000;0.000000;,
     0.000000;1.000000;0.000000;,
     0.000000;1.000000;0.000000;,
     0.000000;1.000000;0.000000;,
     0.000000;1.000000;0.000000;,
     0.000000;1.000000;0.000000;,
     0.000000;1.000000;0.000000;,
     0.000000;1.000000;0.000000;,
     0.000000;1.000000;0.000000;,
     0.000000;1.000000;0.000000;,
     0.000000;1.000000;0.000000;,
     0.000000;1.000000;0.000000;,
     0.000000;1.000000;0.000000;,
     0.000000;1.000000;0.000000;,
     0.000000;1.000000;0.000000;,
     0.000000;1.000000;0.000000;,
     0.000000;1.000000;0.000000;,
     0.000000;1.000000;0.000000;,
     0.000000;1.000000;0.000000;,
     0.000000;1.000000;0.000000;,
     0.000000;1.000000;0.000000;,
     0.000000;1.000000;0.000000;,
     0.000000;1.000000;0.000000;,
     0.000000;1.000000;0.000000;,
     0.000000;1.000000;0.000000;,
     0.000000;1.000000;0.000000;,
     0.000000;1.000000;0.000000;,
     0.000000;1.000000;0.000000;,
     0.000000;1.000000;0.000000;,
     0.000000;1.000000;0.000000;,
     0.000000;1.000000;0.000000;,
     0.000000;1.000000;0.000000;,
     0.000000;1.000000;0.000000;,
     0.000000;1.000000;0.000000;,
     0.000000;1.000000;0.000000;,
     0.000000;1.000000;0.000000;,
     0.000000;1.000000;0.000000;,
     0.000000;1.000000;0.000000;,
     0.000000;1.000000;0.000000;,
     0.000000;1.000000;0.000000;,
     0.000000;1.000000;0.000000;,
     0.000000;1.000000;0.000000;,
     0.000000;1.000000;0.000000;,
     0.000000;1.000000;0.000000;,
     0.000000;1.000000;0.000000;,
     0.000000;1.000000;0.000000;,
     0.000000;1.000000;0.000000;,
     0.000000;1.000000;0.000000;,
     0.000000;1.000000;0.000000;,
     0.000000;1.000000;0.000000;,
     0.000000;1.000000;0.000000;,
     0.000000;1.000000;0.000000;,
     0.000000;1.000000;0.000000;,
     0.000000;1.000000;0.000000;,
     0.000000;1.000000;0.000000;,
     0.000000;1.000000;0.000000;,
     0.000000;1.000000;0.000000;,
     0.000000;1.000000;0.000000;,
     0.000000;1.000000;0.000000;,
     0.000000;1.000000;0.000000;,
     0.000000;1.000000;0.000000;,
     0.000000;1.000000;0.000000;,
     0.000000;1.000000;0.000000;,
     0.000000;1.000000;0.000000;,
     0.000000;1.000000;0.000000;,
     0.000000;1.000000;0.000000;,
     0.000000;1.000000;0.000000;,
     0.000000;1.000000;0.000000;,
     0.000000;1.000000;0.000000;,
     0.000000;1.000000;0.000000;,
     0.000000;1.000000;0.000000;,
     0.000000;1.000000;0.000000;,
     0.000000;1.000000;0.000000;,
     0.000000;1.000000;0.000000;,
     0.000000;1.000000;0.000000;,
     0.000000;1.000000;0.000000;,
     0.000000;1.000000;0.000000;,
     0.000000;1.000000;0.000000;,
     0.000000;1.000000;0.000000;,
     0.000000;1.000000;0.000000;,
     0.000000;1.000000;0.000000;,
     0.000000;1.000000;0.000000;,
     0.000000;1.000000;0.000000;,
     0.000000;1.000000;0.000000;,
     0.000000;1.000000;0.000000;,
     0.000000;1.000000;0.000000;,
     0.000000;1.000000;0.000000;,
     0.000000;1.000000;0.000000;,
     0.000000;1.000000;0.000000;,
     0.000000;1.000000;0.000000;,
     0.000000;1.000000;0.000000;,
     0.000000;1.000000;0.000000;,
     0.000000;1.000000;0.000000;,
     0.000000;1.000000;0.000000;,
     0.000000;1.000000;0.000000;,
     0.000000;1.000000;0.000000;,
     0.000000;1.000000;0.000000;,
     0.000000;1.000000;0.000000;,
     0.000000;1.000000;0.000000;,
     0.000000;1.000000;0.000000;,
     0.000000;1.000000;0.000000;,
     0.000000;1.000000;0.000000;,
     0.000000;1.000000;0.000000;,
     0.000000;1.000000;0.000000;,
     0.000000;1.000000;0.000000;,
     0.000000;1.000000;0.000000;,
     0.000000;1.000000;0.000000;,
     0.000000;1.000000;0.000000;,
     0.000000;1.000000;0.000000;,
     0.000000;1.000000;0.000000;,
     0.000000;1.000000;0.000000;,
     0.000000;1.000000;0.000000;,
     0.000000;1.000000;0.000000;,
     0.000000;1.000000;0.000000;,
     0.000000;1.000000;0.000000;,
     0.000000;1.000000;0.000000;,
     0.000000;1.000000;0.000000;,
     0.000000;1.000000;0.000000;,
     0.000000;1.000000;0.000000;,
     0.000000;1.000000;0.000000;,
     0.000000;1.000000;0.000000;,
     0.000000;1.000000;0.000000;,
     0.000000;1.000000;0.000000;,
     0.000000;1.000000;0.000000;,
     0.000000;1.000000;0.000000;,
     0.000000;1.000000;0.000000;,
     0.000000;1.000000;0.000000;,
     0.000000;1.000000;0.000000;,
     0.000000;1.000000;0.000000;,
     0.000000;1.000000;0.000000;,
     0.000000;1.000000;0.000000;,
     0.000000;1.000000;0.000000;,
     0.000000;1.000000;0.000000;,
     0.000000;1.000000;0.000000;,
     0.000000;1.000000;0.000000;,
     0.000000;1.000000;0.000000;,
     0.000000;1.000000;0.000000;,
     0.000000;1.000000;0.000000;,
     0.000000;1.000000;0.000000;,
     0.000000;1.000000;0.000000;,
     0.000000;1.000000;0.000000;,
     0.000000;1.000000;0.000000;,
     0.000000;1.000000;0.000000;,
     0.000000;1.000000;0.000000;,
     0.000000;1.000000;0.000000;,
     0.000000;1.000000;0.000000;,
     0.000000;1.000000;0.000000;,
     0.000000;1.000000;0.000000;,
     0.000000;1.000000;0.000000;,
     0.000000;1.000000;0.000000;,
     0.000000;1.000000;0.000000;,
     0.000000;1.000000;0.000000;,
     0.000000;1.000000;0.000000;,
     0.000000;1.000000;0.000000;,
     0.000000;1.000000;0.000000;,
     0.000000;1.000000;0.000000;,
     0.000000;1.000000;0.000000;,
     0.000000;1.000000;0.000000;,
     0.000000;1.000000;0.000000;,
     0.000000;1.000000;0.000000;,
     0.000000;1.000000;0.000000;,
     0.000000;1.000000;0.000000;,
     0.000000;1.000000;0.000000;,
     0.000000;1.000000;0.000000;,
     0.000000;1.000000;0.000000;,
     0.000000;1.000000;0.000000;,
     0.000000;1.000000;0.000000;,
     0.000000;1.000000;0.000000;,
     0.000000;1.000000;0.000000;,
     0.000000;1.000000;0.000000;,
     0.000000;1.000000;0.000000;,
     0.000000;1.000000;0.000000;,
     0.000000;1.000000;0.000000;,
     0.000000;1.000000;0.000000;,
     0.000000;1.000000;0.000000;,
     0.000000;1.000000;0.000000;,
     0.000000;1.000000;0.000000;,
     0.000000;1.000000;0.000000;,
     0.000000;1.000000;0.000000;,
     0.000000;1.000000;0.000000;,
     0.000000;1.000000;0.000000;,
     0.000000;1.000000;0.000000;,
     0.000000;1.000000;0.000000;,
     0.000000;1.000000;0.000000;,
     0.000000;1.000000;0.000000;,
     0.000000;1.000000;0.000000;,
     0.000000;1.000000;0.000000;,
     0.000000;1.000000;0.000000;,
     0.000000;1.000000;0.000000;,
     0.000000;1.000000;0.000000;,
     0.000000;1.000000;0.000000;,
     0.000000;1.000000;0.000000;,
     0.000000;1.000000;0.000000;,
     0.000000;1.000000;0.000000;,
     0.000000;1.000000;0.000000;,
     0.000000;1.000000;0.000000;,
     0.000000;1.000000;0.000000;,
     0.000000;1.000000;0.000000;;
     64;
     4;0,1,2,3;,
     4;4,5,6,7;,
     4;8,9,10,11;,
     4;12,13,14,15;,
     4;16,17,18,19;,
     4;20,21,22,23;,
     4;24,25,26,27;,
     4;28,29,30,31;,
     4;32,33,34,35;,
     4;36,37,38,39;,
     4;40,41,42,43;,
     4;44,45,46,47;,
     4;48,49,50,51;,
     4;52,53,54,55;,
     4;56,57,58,59;,
     4;60,61,62,63;,
     4;64,65,66,67;,
     4;68,69,70,71;,
     4;72,73,74,75;,
     4;76,77,78,79;,
     4;80,81,82,83;,
     4;84,85,86,87;,
     4;88,89,90,91;,
     4;92,93,94,95;,
     4;96,97,98,99;,
     4;100,101,102,103;,
     4;104,105,106,107;,
     4;108,109,110,111;,
     4;112,113,114,115;,
     4;116,117,118,119;,
     4;120,121,122,123;,
     4;124,125,126,127;,
     4;128,129,130,131;,
     4;132,133,134,135;,
     4;136,137,138,139;,
     4;140,141,142,143;,
     4;144,145,146,147;,
     4;148,149,150,151;,
     4;152,153,154,155;,
     4;156,157,158,159;,
     4;160,161,162,163;,
     4;164,165,166,167;,
     4;168,169,170,171;,
     4;172,173,174,175;,
     4;176,177,178,179;,
     4;180,181,182,183;,
     4;184,185,186,187;,
     4;188,189,190,191;,
     4;192,193,194,195;,
     4;196,197,198,199;,
     4;200,201,202,203;,
     4;204,205,206,207;,
     4;208,209,210,211;,
     4;212,213,214,215;,
     4;216,217,218,219;,
     4;220,221,222,223;,
     4;224,225,226,227;,
     4;228,229,230,231;,
     4;232,233,234,235;,
     4;236,237,238,239;,
     4;240,241,242,243;,
     4;244,245,246,247;,
     4;248,249,250,251;,
     4;252,253,254,255;;
    }

    MeshMaterialList {
     1;
     64;
     0,
     0,
     0,
     0,
     0,
     0,
     0,
     0,
     0,
     0,
     0,
     0,
     0,
     0,
     0,
     0,
     0,
     0,
     0,
     0,
     0,
     0,
     0,
     0,
     0,
     0,
     0,
     0,
     0,
     0,
     0,
     0,
     0,
     0,
     0,
     0,
     0,
     0,
     0,
     0,
     0,
     0,
     0,
     0,
     0,
     0,
     0,
     0,
     0,
     0,
     0,
     0,
     0,
     0,
     0,
     0,
     0,
     0,
     0,
     0,
     0,
     0,
     0,
     0;

     Material DefaultLib_Scene_Material {
      0.700000;0.700000;0.700000;1.000000;;
      50.000000;
      1.000000;1.000000;1.000000;;
      0.000000;0.000000;0.000000;;
     }
    }
   }
  }
 }
}