4,-1,-16,0,8,8,16,8,0,0,0,0
4,-1,-32,0,8,8,16,8,0,0,0,0
4,-1,-48,0,8,8,16,8,0,0,0,0
3,3,0,0,8,0,0,0,0,1,0,180
8,-1,12,0,4,4,16,4,0,0,0,0
8,-1,20,0,-12,4,16,4,0,0,0,0
2,4,20,0,-4,0,0,0,0,1,0,0
4,-1,32,0,-8,8,16,8,0,0,0,0
4,-1,32,0,-24,8,16,8,0,0,0,0
4,-1,48,0,-8,8,16,8,0,0,0,0
4,-1,48,0,-24,8,16,8,0,0,0,0
6,-1,52,0,8,4,16,8,0,0,0,0
6,-1,52,0,24,4,16,8,0,0,0,0
6,-1,52,0,40,4,16,8,0,0,0,0
6,-1,52,0,56,4,16,8,0,0,0,0
6,-1,-52,0,24,4,16,8,0,0,0,0
6,-1,-52,0,40,4,16,8,0,0,0,0
6,-1,-52,0,56,4,16,8,0,0,0,0
6,-1,-52,0,-8,4,16,8,0,0,0,0
5,-1,48,0,-36,8,16,4,0,0,0,0
5,-1,32,0,-36,8,16,4,0,0,0,0
5,-1,16,0,-36,8,16,4,0,0,0,0
5,-1,0,0,-36,8,16,4,0,0,0,0
5,-1,-16,0,-36,8,16,4,0,0,0,0
5,-1,-32,0,-36,8,16,4,0,0,0,0
5,-1,-48,0,-36,8,16,4,0,0,0,0
6,-1,-52,0,-24,4,16,8,0,0,0,0
5,-1,-48,0,68,8,16,4,0,0,0,0
5,-1,-32,0,68,8,16,4,0,0,0,0
5,-1,-16,0,68,8,16,4,0,0,0,0
5,-1,0,0,68,8,16,4,0,0,0,0
5,-1,16,0,68,8,16,4,0,0,0,0
5,-1,32,0,68,8,16,4,0,0,0,0
5,-1,48,0,68,8,16,4,0,0,0,0
0,-1,-40,0,-12,0,0,0,0,0,0,0
1,-1,36,0,48,0,0,0,0,0,0,0
