xof 0302txt 0064
template Header {
 <3D82AB43-62DA-11cf-AB39-0020AF71E433>
 WORD major;
 WORD minor;
 DWORD flags;
}

template Vector {
 <3D82AB5E-62DA-11cf-AB39-0020AF71E433>
 FLOAT x;
 FLOAT y;
 FLOAT z;
}

template Coords2d {
 <F6F23F44-7686-11cf-8F52-0040333594A3>
 FLOAT u;
 FLOAT v;
}

template Matrix4x4 {
 <F6F23F45-7686-11cf-8F52-0040333594A3>
 array FLOAT matrix[16];
}

template ColorRGBA {
 <35FF44E0-6C7C-11cf-8F52-0040333594A3>
 FLOAT red;
 FLOAT green;
 FLOAT blue;
 FLOAT alpha;
}

template ColorRGB {
 <D3E16E81-7835-11cf-8F52-0040333594A3>
 FLOAT red;
 FLOAT green;
 FLOAT blue;
}

template IndexedColor {
 <1630B820-7842-11cf-8F52-0040333594A3>
 DWORD index;
 ColorRGBA indexColor;
}

template Boolean {
 <4885AE61-78E8-11cf-8F52-0040333594A3>
 WORD truefalse;
}

template Boolean2d {
 <4885AE63-78E8-11cf-8F52-0040333594A3>
 Boolean u;
 Boolean v;
}

template MaterialWrap {
 <4885AE60-78E8-11cf-8F52-0040333594A3>
 Boolean u;
 Boolean v;
}

template TextureFilename {
 <A42790E1-7810-11cf-8F52-0040333594A3>
 STRING filename;
}

template Material {
 <3D82AB4D-62DA-11cf-AB39-0020AF71E433>
 ColorRGBA faceColor;
 FLOAT power;
 ColorRGB specularColor;
 ColorRGB emissiveColor;
 [...]
}

template MeshFace {
 <3D82AB5F-62DA-11cf-AB39-0020AF71E433>
 DWORD nFaceVertexIndices;
 array DWORD faceVertexIndices[nFaceVertexIndices];
}

template MeshFaceWraps {
 <4885AE62-78E8-11cf-8F52-0040333594A3>
 DWORD nFaceWrapValues;
 Boolean2d faceWrapValues;
}

template MeshTextureCoords {
 <F6F23F40-7686-11cf-8F52-0040333594A3>
 DWORD nTextureCoords;
 array Coords2d textureCoords[nTextureCoords];
}

template MeshMaterialList {
 <F6F23F42-7686-11cf-8F52-0040333594A3>
 DWORD nMaterials;
 DWORD nFaceIndexes;
 array DWORD faceIndexes[nFaceIndexes];
 [Material]
}

template MeshNormals {
 <F6F23F43-7686-11cf-8F52-0040333594A3>
 DWORD nNormals;
 array Vector normals[nNormals];
 DWORD nFaceNormals;
 array MeshFace faceNormals[nFaceNormals];
}

template MeshVertexColors {
 <1630B821-7842-11cf-8F52-0040333594A3>
 DWORD nVertexColors;
 array IndexedColor vertexColors[nVertexColors];
}

template Mesh {
 <3D82AB44-62DA-11cf-AB39-0020AF71E433>
 DWORD nVertices;
 array Vector vertices[nVertices];
 DWORD nFaces;
 array MeshFace faces[nFaces];
 [...]
}

Header{
1;
0;
1;
}

Mesh {
 24;
 1.00000;1.00000;-1.00000;,
 1.00000;1.00000;1.00000;,
 1.00000;-1.00000;1.00000;,
 1.00000;-1.00000;-1.00000;,
 -1.00000;1.00000;1.00000;,
 -1.00000;1.00000;-1.00000;,
 -1.00000;-1.00000;-1.00000;,
 -1.00000;-1.00000;1.00000;,
 -1.00000;1.00000;-1.00000;,
 1.00000;1.00000;-1.00000;,
 1.00000;-1.00000;-1.00000;,
 -1.00000;-1.00000;-1.00000;,
 1.00000;1.00000;1.00000;,
 -1.00000;1.00000;1.00000;,
 -1.00000;-1.00000;1.00000;,
 1.00000;-1.00000;1.00000;,
 1.00000;1.00000;-1.00000;,
 -1.00000;1.00000;-1.00000;,
 -1.00000;-1.00000;-1.00000;,
 1.00000;-1.00000;-1.00000;,
 -0.03591;0.00000;0.03591;,
 0.03591;0.00000;0.03591;,
 0.03591;0.00000;-0.03591;,
 -0.03591;0.00000;-0.03591;;
 
 16;
 3;0,1,2;,
 3;0,2,3;,
 3;4,5,6;,
 3;4,6,7;,
 3;8,9,10;,
 3;8,10,11;,
 3;12,13,14;,
 3;12,14,15;,
 3;4,1,16;,
 3;4,16,17;,
 3;18,19,2;,
 3;18,2,7;,
 3;20,21,22;,
 3;20,22,23;,
 3;20,21,22;,
 3;20,22,23;;
 
 MeshMaterialList {
  2;
  16;
  0,
  0,
  0,
  0,
  0,
  0,
  0,
  0,
  0,
  0,
  0,
  0,
  0,
  0,
  1,
  1;;
  Material {
   1.000000;1.000000;1.000000;1.000000;;
   5.000000;
   0.000000;0.000000;0.000000;;
   0.000000;0.000000;0.000000;;
   TextureFilename {
    "test.png";
   }
  }
  Material {
   1.000000;1.000000;1.000000;1.000000;;
   5.000000;
   0.000000;0.000000;0.000000;;
   0.000000;0.000000;0.000000;;
   TextureFilename {
    "white.png";
   }
  }
 }
 MeshNormals {
  6;
  1.000000;0.000000;0.000000;,
  -1.000000;0.000000;0.000000;,
  0.000000;1.000000;0.000000;,
  0.000000;0.000000;-1.000000;,
  0.000000;0.000000;1.000000;,
  0.000000;-1.000000;-0.000000;;
  16;
  3;0,0,0;,
  3;0,0,0;,
  3;1,1,1;,
  3;1,1,1;,
  3;3,3,3;,
  3;3,3,3;,
  3;4,4,4;,
  3;4,4,4;,
  3;2,2,2;,
  3;2,2,2;,
  3;5,5,5;,
  3;5,5,5;,
  3;2,2,2;,
  3;2,2,2;,
  3;2,2,2;,
  3;2,2,2;;
 }
 MeshTextureCoords {
  24;
  0.000000;0.000000;,
  1.000000;0.000000;,
  1.000000;1.000000;,
  0.000000;1.000000;,
  0.000000;0.000000;,
  1.000000;0.000000;,
  1.000000;1.000000;,
  0.000000;1.000000;,
  0.000000;0.000000;,
  1.000000;0.000000;,
  1.000000;1.000000;,
  0.000000;1.000000;,
  0.000000;0.000000;,
  1.000000;0.000000;,
  1.000000;1.000000;,
  0.000000;1.000000;,
  1.000000;1.000000;,
  0.000000;1.000000;,
  0.000000;0.000000;,
  1.000000;0.000000;,
  0.000000;0.000000;,
  1.000000;0.000000;,
  1.000000;1.000000;,
  0.000000;1.000000;;
 }
 MeshVertexColors {
  24;
  0;1.000000;1.000000;1.000000;1.000000;,
  1;1.000000;1.000000;1.000000;1.000000;,
  2;1.000000;1.000000;1.000000;1.000000;,
  3;1.000000;1.000000;1.000000;1.000000;,
  4;1.000000;1.000000;1.000000;1.000000;,
  5;1.000000;1.000000;1.000000;1.000000;,
  6;1.000000;1.000000;1.000000;1.000000;,
  7;1.000000;1.000000;1.000000;1.000000;,
  8;1.000000;1.000000;1.000000;1.000000;,
  9;1.000000;1.000000;1.000000;1.000000;,
  10;1.000000;1.000000;1.000000;1.000000;,
  11;1.000000;1.000000;1.000000;1.000000;,
  12;1.000000;1.000000;1.000000;1.000000;,
  13;1.000000;1.000000;1.000000;1.000000;,
  14;1.000000;1.000000;1.000000;1.000000;,
  15;1.000000;1.000000;1.000000;1.000000;,
  16;1.000000;1.000000;1.000000;1.000000;,
  17;1.000000;1.000000;1.000000;1.000000;,
  18;1.000000;1.000000;1.000000;1.000000;,
  19;1.000000;1.000000;1.000000;1.000000;,
  20;1.000000;1.000000;1.000000;1.000000;,
  21;1.000000;1.000000;1.000000;1.000000;,
  22;1.000000;1.000000;1.000000;1.000000;,
  23;1.000000;1.000000;1.000000;1.000000;;
 }
}
